{
    "key": "9399",
    "ecgId": "9399",
    "time": "2017-09-14T13:08:04.500",
    "errorDesc": null,
    "inference": {
        "syndromic_ecg_analysis": [
            {
                "description": "Normal morphology"
            }
        ]
    },
    "basic_parameters": {
        "heart_rate": "160",
        "rhythm": "250 SinTACHY SINUS TACHYCARDIA",
        "PR_interval": "158",
        "QRS_interval": "76",
        "QRS_axis": "43",
        "QT_interval": "260",
        "QTc_interval": "425"
    },
    "all_leads": {
        "Lead III": {
            "QRS_uV": 360,
            "ST_uV": -61,
            "T_wave_uV": 0,
            "P_wave_uV": 0
        },
        "Lead V6": {
            "QRS_uV": 687,
            "ST_uV": -96,
            "T_wave_uV": 0,
            "P_wave_uV": 0
        },
        "Lead II": {
            "QRS_uV": 966,
            "ST_uV": -189,
            "T_wave_uV": 0,
            "P_wave_uV": 0
        },
        "Lead V5": {
            "QRS_uV": 1007,
            "ST_uV": -116,
            "T_wave_uV": 0,
            "P_wave_uV": 0
        },
        "Lead V4": {
            "QRS_uV": 1159,
            "ST_uV": -153,
            "T_wave_uV": 0,
            "P_wave_uV": 0
        },
        "Lead V3": {
            "QRS_uV": 770,
            "ST_uV": -452,
            "T_wave_uV": 0,
            "P_wave_uV": 0
        },
        "Lead AvL": {
            "QRS_uV": 144,
            "ST_uV": -34,
            "T_wave_uV": 0,
            "P_wave_uV": 0
        },
        "Lead V2": {
            "QRS_uV": 227,
            "ST_uV": -459,
            "T_wave_uV": 0,
            "P_wave_uV": 0
        },
        "Lead V1": {
            "QRS_uV": 92,
            "ST_uV": -277,
            "T_wave_uV": 0,
            "P_wave_uV": 0
        },
        "Lead AvF": {
            "QRS_uV": 662,
            "ST_uV": -125,
            "T_wave_uV": 0,
            "P_wave_uV": 0
        },
        "Lead I": {
            "QRS_uV": 608,
            "ST_uV": -127,
            "T_wave_uV": 0,
            "P_wave_uV": 0
        },
        "Lead AvR": {
            "QRS_uV": 790,
            "ST_uV": 159,
            "T_wave_uV": 0,
            "P_wave_uV": 0
        }
    },
    "universal_ecg_score_system": {
        "overall": "40",
        "stamina": "20",
        "myocardial": "70",
        "psycho_emotional": "71",
        "heart_rhythm_disturbances": "0"
    }
}