{
    "key": "9411",
    "ecgId": "9411",
    "time": "2017-09-14T13:13:13.553",
    "errorDesc": null,
    "inference": {
        "syndromic_ecg_analysis": [
            {
                "description": "Normal morphology"
            }
        ]
    },
    "basic_parameters": {
        "heart_rate": "80",
        "rhythm": "440 NSR SINUS RHYTHM, 0 Pvc.Left + NSR Sinus rhythm with occasional premature ventricular complexes (left ventricular) (9 per min), 3946 Pvc.Left + NSR Sinus rhythm with occasional premature ventricular complexes (left ventricular)",
        "PR_interval": "194",
        "QRS_interval": "82",
        "QRS_axis": "30",
        "QT_interval": "348",
        "QTc_interval": "378"
    },
    "all_leads": {
        "Lead III": {
            "QRS_uV": 382,
            "ST_uV": 20,
            "T_wave_uV": 67,
            "P_wave_uV": 39
        },
        "Lead V6": {
            "QRS_uV": 735,
            "ST_uV": 49,
            "T_wave_uV": 154,
            "P_wave_uV": 71
        },
        "Lead II": {
            "QRS_uV": 1035,
            "ST_uV": 61,
            "T_wave_uV": 209,
            "P_wave_uV": 115
        },
        "Lead V5": {
            "QRS_uV": 1070,
            "ST_uV": 58,
            "T_wave_uV": 187,
            "P_wave_uV": 90
        },
        "Lead V4": {
            "QRS_uV": 1250,
            "ST_uV": 81,
            "T_wave_uV": 248,
            "P_wave_uV": 105
        },
        "Lead V3": {
            "QRS_uV": 1329,
            "ST_uV": 34,
            "T_wave_uV": 183,
            "P_wave_uV": 74
        },
        "Lead AvL": {
            "QRS_uV": 181,
            "ST_uV": 10,
            "T_wave_uV": 37,
            "P_wave_uV": 18
        },
        "Lead V2": {
            "QRS_uV": 1093,
            "ST_uV": 22,
            "T_wave_uV": 101,
            "P_wave_uV": 64
        },
        "Lead V1": {
            "QRS_uV": 615,
            "ST_uV": 14,
            "T_wave_uV": 62,
            "P_wave_uV": 53
        },
        "Lead AvF": {
            "QRS_uV": 708,
            "ST_uV": 40,
            "T_wave_uV": 138,
            "P_wave_uV": 76
        },
        "Lead I": {
            "QRS_uV": 650,
            "ST_uV": 40,
            "T_wave_uV": 142,
            "P_wave_uV": 77
        },
        "Lead AvR": {
            "QRS_uV": 117,
            "ST_uV": -51,
            "T_wave_uV": 0,
            "P_wave_uV": 0
        }
    },
    "universal_ecg_score_system": {
        "overall": "68",
        "stamina": "34",
        "myocardial": "79",
        "psycho_emotional": "58",
        "heart_rhythm_disturbances": "100"
    }
}