{
    "key": "9412",
    "ecgId": "9412",
    "time": "2017-09-14T13:13:36.073",
    "errorDesc": null,
    "inference": {
        "syndromic_ecg_analysis": [
            {
                "description": "Ischemic ST-T changes in inferior leads"
            }
        ]
    },
    "basic_parameters": {
        "heart_rate": "77",
        "rhythm": "3454 NSR SINUS RHYTHM, 0 Pvc.Left + NSR Sinus rhythm with occasional premature ventricular complexes (left ventricular) (10 per min), 782 Pvc.Left + NSR Sinus rhythm with occasional premature ventricular complexes (left ventricular)",
        "PR_interval": "190",
        "QRS_interval": "84",
        "QRS_axis": "29",
        "QT_interval": "408",
        "QTc_interval": "439"
    },
    "all_leads": {
        "Lead III": {
            "QRS_uV": 383,
            "ST_uV": 19,
            "T_wave_uV": 0,
            "P_wave_uV": 38
        },
        "Lead V6": {
            "QRS_uV": 735,
            "ST_uV": 49,
            "T_wave_uV": 153,
            "P_wave_uV": 70
        },
        "Lead II": {
            "QRS_uV": 1043,
            "ST_uV": 61,
            "T_wave_uV": 198,
            "P_wave_uV": 114
        },
        "Lead V5": {
            "QRS_uV": 1067,
            "ST_uV": 59,
            "T_wave_uV": 188,
            "P_wave_uV": 90
        },
        "Lead V4": {
            "QRS_uV": 1256,
            "ST_uV": 82,
            "T_wave_uV": 248,
            "P_wave_uV": 105
        },
        "Lead V3": {
            "QRS_uV": 826,
            "ST_uV": 33,
            "T_wave_uV": 183,
            "P_wave_uV": 75
        },
        "Lead AvL": {
            "QRS_uV": 182,
            "ST_uV": 10,
            "T_wave_uV": 177,
            "P_wave_uV": 18
        },
        "Lead V2": {
            "QRS_uV": 1093,
            "ST_uV": 22,
            "T_wave_uV": 113,
            "P_wave_uV": 64
        },
        "Lead V1": {
            "QRS_uV": 616,
            "ST_uV": 13,
            "T_wave_uV": 72,
            "P_wave_uV": 54
        },
        "Lead AvF": {
            "QRS_uV": 712,
            "ST_uV": 40,
            "T_wave_uV": 0,
            "P_wave_uV": 76
        },
        "Lead I": {
            "QRS_uV": 657,
            "ST_uV": 40,
            "T_wave_uV": 166,
            "P_wave_uV": 77
        },
        "Lead AvR": {
            "QRS_uV": 125,
            "ST_uV": -50,
            "T_wave_uV": 0,
            "P_wave_uV": 0
        }
    },
    "universal_ecg_score_system": {
        "overall": "70",
        "stamina": "64",
        "myocardial": "72",
        "psycho_emotional": "71",
        "heart_rhythm_disturbances": "100"
    }
}