{
    "key": "9413",
    "ecgId": "9413",
    "time": "2017-09-14T13:14:24.101",
    "errorDesc": null,
    "inference": {
        "syndromic_ecg_analysis": [
            {
                "description": "Ischemic ST-T changes in inferior leads"
            }
        ]
    },
    "basic_parameters": {
        "heart_rate": "77",
        "rhythm": "3278 NSR SINUS RHYTHM, 0 Pvc.Left + NSR Sinus rhythm with occasional premature ventricular complexes (left ventricular) (10 per min), 604 Pvc.Left + NSR Sinus rhythm with occasional premature ventricular complexes (left ventricular)",
        "PR_interval": "196",
        "QRS_interval": "82",
        "QRS_axis": "30",
        "QT_interval": "404",
        "QTc_interval": "435"
    },
    "all_leads": {
        "Lead III": {
            "QRS_uV": 384,
            "ST_uV": 15,
            "T_wave_uV": 0,
            "P_wave_uV": 37
        },
        "Lead V6": {
            "QRS_uV": 741,
            "ST_uV": 35,
            "T_wave_uV": 140,
            "P_wave_uV": 69
        },
        "Lead II": {
            "QRS_uV": 1043,
            "ST_uV": 45,
            "T_wave_uV": 183,
            "P_wave_uV": 111
        },
        "Lead V5": {
            "QRS_uV": 1072,
            "ST_uV": 44,
            "T_wave_uV": 174,
            "P_wave_uV": 89
        },
        "Lead V4": {
            "QRS_uV": 1257,
            "ST_uV": 69,
            "T_wave_uV": 236,
            "P_wave_uV": 105
        },
        "Lead V3": {
            "QRS_uV": 1332,
            "ST_uV": 16,
            "T_wave_uV": 172,
            "P_wave_uV": 69
        },
        "Lead AvL": {
            "QRS_uV": 183,
            "ST_uV": 7,
            "T_wave_uV": 174,
            "P_wave_uV": 18
        },
        "Lead V2": {
            "QRS_uV": 1095,
            "ST_uV": 6,
            "T_wave_uV": 100,
            "P_wave_uV": 59
        },
        "Lead V1": {
            "QRS_uV": 615,
            "ST_uV": -2,
            "T_wave_uV": 57,
            "P_wave_uV": 49
        },
        "Lead AvF": {
            "QRS_uV": 712,
            "ST_uV": 31,
            "T_wave_uV": 0,
            "P_wave_uV": 75
        },
        "Lead I": {
            "QRS_uV": 654,
            "ST_uV": 30,
            "T_wave_uV": 153,
            "P_wave_uV": 75
        },
        "Lead AvR": {
            "QRS_uV": 134,
            "ST_uV": -37,
            "T_wave_uV": 0,
            "P_wave_uV": 0
        }
    },
    "universal_ecg_score_system": {
        "overall": "71",
        "stamina": "64",
        "myocardial": "71",
        "psycho_emotional": "70",
        "heart_rhythm_disturbances": "100"
    }
}