{
    "key": "9420",
    "ecgId": "9420",
    "time": "2017-09-14T13:23:56.813",
    "errorDesc": null,
    "inference": {
        "syndromic_ecg_analysis": [
            {
                "description": "Normal morphology"
            }
        ]
    },
    "basic_parameters": {
        "heart_rate": "80",
        "rhythm": "430 NSR SINUS RHYTHM, 0 Multi.Pvcs + NSR Sinus rhythm with occasional premature ventricular complexes (Multifocal) (9 per min), 4034 Pvc.Right + NSR Sinus rhythm with occasional premature ventricular complexes (right ventricular), 10038 Pvc.Left + NSR Sinus rhythm with occasional premature ventricular complexes (left ventricular), 15288 Pvc.Right + NSR Sinus rhythm with occasional premature ventricular complexes (right ventricular), 29574 Pvc.Left + NSR Sinus rhythm with occasional premature ventricular complexes (left ventricular), 34824 Pvc.Right + NSR Sinus rhythm with occasional premature ventricular complexes (right ventricular)",
        "PR_interval": "198",
        "QRS_interval": "84",
        "QRS_axis": "29",
        "QT_interval": "342",
        "QTc_interval": "371"
    },
    "all_leads": {
        "Lead III": {
            "QRS_uV": 373,
            "ST_uV": 22,
            "T_wave_uV": 68,
            "P_wave_uV": 40
        },
        "Lead V6": {
            "QRS_uV": 738,
            "ST_uV": 52,
            "T_wave_uV": 157,
            "P_wave_uV": 73
        },
        "Lead II": {
            "QRS_uV": 1035,
            "ST_uV": 63,
            "T_wave_uV": 211,
            "P_wave_uV": 116
        },
        "Lead V5": {
            "QRS_uV": 1071,
            "ST_uV": 62,
            "T_wave_uV": 191,
            "P_wave_uV": 93
        },
        "Lead V4": {
            "QRS_uV": 1252,
            "ST_uV": 87,
            "T_wave_uV": 253,
            "P_wave_uV": 109
        },
        "Lead V3": {
            "QRS_uV": 1335,
            "ST_uV": 59,
            "T_wave_uV": 183,
            "P_wave_uV": 74
        },
        "Lead AvL": {
            "QRS_uV": 186,
            "ST_uV": 11,
            "T_wave_uV": 37,
            "P_wave_uV": 18
        },
        "Lead V2": {
            "QRS_uV": 1087,
            "ST_uV": 36,
            "T_wave_uV": 103,
            "P_wave_uV": 65
        },
        "Lead V1": {
            "QRS_uV": 611,
            "ST_uV": 22,
            "T_wave_uV": 64,
            "P_wave_uV": 54
        },
        "Lead AvF": {
            "QRS_uV": 699,
            "ST_uV": 43,
            "T_wave_uV": 140,
            "P_wave_uV": 79
        },
        "Lead I": {
            "QRS_uV": 655,
            "ST_uV": 42,
            "T_wave_uV": 144,
            "P_wave_uV": 79
        },
        "Lead AvR": {
            "QRS_uV": 129,
            "ST_uV": -53,
            "T_wave_uV": 0,
            "P_wave_uV": 0
        }
    },
    "universal_ecg_score_system": {
        "overall": "67",
        "stamina": "31",
        "myocardial": "76",
        "psycho_emotional": "57",
        "heart_rhythm_disturbances": "100"
    }
}