{
    "key": "9429",
    "ecgId": "9429",
    "time": "2017-09-14T13:28:05.096",
    "errorDesc": null,
    "inference": {
        "syndromic_ecg_analysis": [
            {
                "description": "Normal morphology"
            }
        ]
    },
    "basic_parameters": {
        "heart_rate": "40",
        "rhythm": "1292 SinBRADY SINUS BRADYCARDIA, 0 Bigeminy BIGEMINY, 1896 Pvc + NSR Sinus rhythm with occasional premature ventricular complexes, 3398 Pvc.Left + NSR Sinus rhythm with occasional premature ventricular complexes (left ventricular), 4898 Pvc + NSR Sinus rhythm with occasional premature ventricular complexes, 6398 Pvc.Left + NSR Sinus rhythm with occasional premature ventricular complexes (left ventricular), 7900 Pvc + NSR Sinus rhythm with occasional premature ventricular complexes, 9400 Pvc.Left + NSR Sinus rhythm with occasional premature ventricular complexes (left ventricular), 10902 Pvc + NSR Sinus rhythm with occasional premature ventricular complexes, 12402 Pvc.Left + NSR Sinus rhythm with occasional premature ventricular complexes (left ventricular), 13902 Pvc + NSR Sinus rhythm with occasional premature ventricular complexes, 15404 Pvc.Left + NSR Sinus rhythm with occasional premature ventricular complexes (left ventricular), 16904 Pvc + NSR Sinus rhythm with occasional premature ventricular complexes, 18404 Pvc.Left + NSR Sinus rhythm with occasional premature ventricular complexes (left ventricular), 19906 Pvc + NSR Sinus rhythm with occasional premature ventricular complexes, 21432 Pvc.Left + NSR Sinus rhythm with occasional premature ventricular complexes (left ventricular), 22934 Pvc + NSR Sinus rhythm with occasional premature ventricular complexes, 24434 Pvc.Left + NSR Sinus rhythm with occasional premature ventricular complexes (left ventricular), 25934 Pvc + NSR Sinus rhythm with occasional premature ventricular complexes, 27436 Pvc.Left + NSR Sinus rhythm with occasional premature ventricular complexes (left ventricular), 28936 Pvc + NSR Sinus rhythm with occasional premature ventricular complexes, 30436 Pvc.Left + NSR Sinus rhythm with occasional premature ventricular complexes (left ventricular), 31936 Pvc + NSR Sinus rhythm with occasional premature ventricular complexes, 33438 Pvc.Left + NSR Sinus rhythm with occasional premature ventricular complexes (left ventricular), 34938 Pvc + NSR Sinus rhythm with occasional premature ventricular complexes, 36440 Pvc.Left + NSR Sinus rhythm with occasional premature ventricular complexes (left ventricular)",
        "PR_interval": "162",
        "QRS_interval": "112",
        "QRS_axis": "31",
        "QT_interval": "384",
        "QTc_interval": "314"
    },
    "all_leads": {
        "Lead III": {
            "QRS_uV": 378,
            "ST_uV": 10,
            "T_wave_uV": 59,
            "P_wave_uV": 37
        },
        "Lead V6": {
            "QRS_uV": 751,
            "ST_uV": 63,
            "T_wave_uV": 177,
            "P_wave_uV": 65
        },
        "Lead II": {
            "QRS_uV": 1046,
            "ST_uV": 46,
            "T_wave_uV": 208,
            "P_wave_uV": 113
        },
        "Lead V5": {
            "QRS_uV": 1076,
            "ST_uV": 68,
            "T_wave_uV": 207,
            "P_wave_uV": 81
        },
        "Lead V4": {
            "QRS_uV": 1260,
            "ST_uV": 85,
            "T_wave_uV": 264,
            "P_wave_uV": 95
        },
        "Lead V3": {
            "QRS_uV": 1290,
            "ST_uV": 38,
            "T_wave_uV": 205,
            "P_wave_uV": 75
        },
        "Lead AvL": {
            "QRS_uV": 189,
            "ST_uV": 14,
            "T_wave_uV": 45,
            "P_wave_uV": 19
        },
        "Lead V2": {
            "QRS_uV": 1063,
            "ST_uV": 35,
            "T_wave_uV": 128,
            "P_wave_uV": 65
        },
        "Lead V1": {
            "QRS_uV": 598,
            "ST_uV": 30,
            "T_wave_uV": 86,
            "P_wave_uV": 55
        },
        "Lead AvF": {
            "QRS_uV": 711,
            "ST_uV": 28,
            "T_wave_uV": 134,
            "P_wave_uV": 75
        },
        "Lead I": {
            "QRS_uV": 657,
            "ST_uV": 36,
            "T_wave_uV": 150,
            "P_wave_uV": 77
        },
        "Lead AvR": {
            "QRS_uV": 127,
            "ST_uV": -42,
            "T_wave_uV": 0,
            "P_wave_uV": 0
        }
    },
    "universal_ecg_score_system": {
        "overall": "50",
        "stamina": "37",
        "myocardial": "68",
        "psycho_emotional": "58",
        "heart_rhythm_disturbances": "38"
    }
}