{
    "key": "9445",
    "ecgId": "9445",
    "time": "2017-09-14T13:35:44.660",
    "errorDesc": null,
    "inference": {
        "syndromic_ecg_analysis": [
            {
                "description": "Normal morphology"
            }
        ]
    },
    "basic_parameters": {
        "heart_rate": "80",
        "rhythm": "178 1degr.AVBlock+NSR FIRST DEGREE HEART BLOCK + SINUS RHYTHM",
        "PR_interval": "284",
        "QRS_interval": "82",
        "QRS_axis": "30",
        "QT_interval": "374",
        "QTc_interval": "432"
    },
    "all_leads": {
        "Lead III": {
            "QRS_uV": 379,
            "ST_uV": 22,
            "T_wave_uV": 68,
            "P_wave_uV": 38
        },
        "Lead V6": {
            "QRS_uV": 734,
            "ST_uV": 53,
            "T_wave_uV": 160,
            "P_wave_uV": 71
        },
        "Lead II": {
            "QRS_uV": 1035,
            "ST_uV": 67,
            "T_wave_uV": 218,
            "P_wave_uV": 116
        },
        "Lead V5": {
            "QRS_uV": 1063,
            "ST_uV": 64,
            "T_wave_uV": 195,
            "P_wave_uV": 91
        },
        "Lead V4": {
            "QRS_uV": 1242,
            "ST_uV": 88,
            "T_wave_uV": 257,
            "P_wave_uV": 107
        },
        "Lead V3": {
            "QRS_uV": 1338,
            "ST_uV": 62,
            "T_wave_uV": 195,
            "P_wave_uV": 74
        },
        "Lead AvL": {
            "QRS_uV": 191,
            "ST_uV": 12,
            "T_wave_uV": 41,
            "P_wave_uV": 20
        },
        "Lead V2": {
            "QRS_uV": 1095,
            "ST_uV": 36,
            "T_wave_uV": 105,
            "P_wave_uV": 61
        },
        "Lead V1": {
            "QRS_uV": 613,
            "ST_uV": 22,
            "T_wave_uV": 64,
            "P_wave_uV": 52
        },
        "Lead AvF": {
            "QRS_uV": 706,
            "ST_uV": 45,
            "T_wave_uV": 143,
            "P_wave_uV": 77
        },
        "Lead I": {
            "QRS_uV": 652,
            "ST_uV": 45,
            "T_wave_uV": 148,
            "P_wave_uV": 77
        },
        "Lead AvR": {
            "QRS_uV": 113,
            "ST_uV": -57,
            "T_wave_uV": 0,
            "P_wave_uV": 0
        }
    },
    "universal_ecg_score_system": {
        "overall": "68",
        "stamina": "32",
        "myocardial": "78",
        "psycho_emotional": "58",
        "heart_rhythm_disturbances": "100"
    }
}

