{
    "key": "9373",
    "ecgId": "9373",
    "time": "2017-09-14T12:52:50.477",
    "errorDesc": null,
    "inference": {
        "syndromic_ecg_analysis": [
            {
                "description": "Premature QRS transition in right precordials, positional variance"
            },
            {
                "description": "Ischemic ST-T changes compatible with epicardial injury in inferior leads"
            },
            {
                "description": "Ischemic ST-T changes compatible with epicardial injury in lateral leads"
            }
        ]
    },
    "basic_parameters": {
        "heart_rate": "60",
        "rhythm": "875 NSR SINUS RHYTHM",
        "PR_interval": "172",
        "QRS_interval": "112",
        "QRS_axis": "39",
        "QT_interval": "376",
        "QTc_interval": "376"
    },
    "all_leads": {
        "Lead III": {
            "QRS_uV": 352,
            "ST_uV": 49,
            "T_wave_uV": 77,
            "P_wave_uV": 38
        },
        "Lead V6": {
            "QRS_uV": 754,
            "ST_uV": 114,
            "T_wave_uV": 182,
            "P_wave_uV": 73
        },
        "Lead II": {
            "QRS_uV": 1009,
            "ST_uV": 154,
            "T_wave_uV": 245,
            "P_wave_uV": 118
        },
        "Lead V5": {
            "QRS_uV": 1069,
            "ST_uV": 137,
            "T_wave_uV": 220,
            "P_wave_uV": 93
        },
        "Lead V4": {
            "QRS_uV": 1088,
            "ST_uV": 184,
            "T_wave_uV": 292,
            "P_wave_uV": 109
        },
        "Lead V3": {
            "QRS_uV": 967,
            "ST_uV": 129,
            "T_wave_uV": 207,
            "P_wave_uV": 75
        },
        "Lead AvL": {
            "QRS_uV": 182,
            "ST_uV": 28,
            "T_wave_uV": 45,
            "P_wave_uV": 20
        },
        "Lead V2": {
            "QRS_uV": 643,
            "ST_uV": 72,
            "T_wave_uV": 113,
            "P_wave_uV": 63
        },
        "Lead V1": {
            "QRS_uV": 347,
            "ST_uV": 44,
            "T_wave_uV": 69,
            "P_wave_uV": 52
        },
        "Lead AvF": {
            "QRS_uV": 680,
            "ST_uV": 102,
            "T_wave_uV": 161,
            "P_wave_uV": 79
        },
        "Lead I": {
            "QRS_uV": 654,
            "ST_uV": 103,
            "T_wave_uV": 165,
            "P_wave_uV": 78
        },
        "Lead AvR": {
            "QRS_uV": 836,
            "ST_uV": -129,
            "T_wave_uV": 0,
            "P_wave_uV": 0
        }
    },
    "universal_ecg_score_system": {
        "overall": "66",
        "stamina": "34",
        "myocardial": "84",
        "psycho_emotional": "53",
        "heart_rhythm_disturbances": "100"
    }
}