{
    "key": "9447",
    "ecgId": "9447",
    "time": "2017-09-14T13:36:27.007",
    "errorDesc": null,
    "inference": {
        "syndromic_ecg_analysis": [
            {
                "description": "Low QRS voltages"
            },
            {
                "description": "Right QRS axis deviation"
            },
            {
                "description": "Premature QRS transition in right precordials, positional variance"
            },
            {
                "description": "Ischemic ST-T changes in posterior leads"
            }
        ]
    },
    "basic_parameters": {
        "heart_rate": "65",
        "rhythm": "732 2degr.AVBlock SECOND DEGREE HEART BLOCK",
        "PR_interval": "234",
        "QRS_interval": "110",
        "QRS_axis": "1000",
        "QT_interval": "384",
        "QTc_interval": "398"
    },
    "all_leads": {
        "Lead III": {
            "QRS_uV": 11,
            "ST_uV": 3,
            "T_wave_uV": 249,
            "P_wave_uV": 11
        },
        "Lead V6": {
            "QRS_uV": 631,
            "ST_uV": 16,
            "T_wave_uV": 139,
            "P_wave_uV": 267
        },
        "Lead II": {
            "QRS_uV": 38,
            "ST_uV": 16,
            "T_wave_uV": 869,
            "P_wave_uV": 35
        },
        "Lead V5": {
            "QRS_uV": 893,
            "ST_uV": 18,
            "T_wave_uV": 183,
            "P_wave_uV": 379
        },
        "Lead V4": {
            "QRS_uV": 1014,
            "ST_uV": 28,
            "T_wave_uV": 217,
            "P_wave_uV": 397
        },
        "Lead V3": {
            "QRS_uV": 19,
            "ST_uV": 14,
            "T_wave_uV": 788,
            "P_wave_uV": 16
        },
        "Lead AvL": {
            "QRS_uV": 8,
            "ST_uV": 4,
            "T_wave_uV": 185,
            "P_wave_uV": 7
        },
        "Lead V2": {
            "QRS_uV": 12,
            "ST_uV": 8,
            "T_wave_uV": 0,
            "P_wave_uV": 11
        },
        "Lead V1": {
            "QRS_uV": 10,
            "ST_uV": 7,
            "T_wave_uV": 0,
            "P_wave_uV": 10
        },
        "Lead AvF": {
            "QRS_uV": 25,
            "ST_uV": 10,
            "T_wave_uV": 559,
            "P_wave_uV": 23
        },
        "Lead I": {
            "QRS_uV": 27,
            "ST_uV": 12,
            "T_wave_uV": 611,
            "P_wave_uV": 23
        },
        "Lead AvR": {
            "QRS_uV": 33,
            "ST_uV": -15,
            "T_wave_uV": 0,
            "P_wave_uV": 0
        }
    },
    "universal_ecg_score_system": {
        "overall": "77",
        "stamina": "75",
        "myocardial": "48",
        "psycho_emotional": "80",
        "heart_rhythm_disturbances": "0"
    }
}
