{
    "key": "9374",
    "ecgId": "9374",
    "time": "2017-09-14T12:53:13.930",
    "errorDesc": null,
    "inference": {
        "syndromic_ecg_analysis": [
            {
                "description": "Non systematic major intraventricular block"
            },
            {
                "description": "Premature QRS transition in right precordials, positional variance"
            },
            {
                "description": "Inferior infarction, probably acute"
            },
            {
                "description": "Anterior infarction, probably acute"
            },
            {
                "description": "Ischemic ST-T changes compatible with epicardial injury in inferior leads"
            },
            {
                "description": "Ischemic ST-T changes compatible with epicardial injury in lateral leads"
            },
            {
                "description": "Ischemic ST-T changes compatible with epicardial injury in anterior leads"
            },
            {
                "description": "Ischemic ST-T changes compatible with epicardial injury in anterolateral leads"
            }
        ]
    },
    "basic_parameters": {
        "heart_rate": "60",
        "rhythm": "929 NSR+IVCD NSR + IVCD",
        "PR_interval": "152",
        "QRS_interval": "144",
        "QRS_axis": "41",
        "QT_interval": "370",
        "QTc_interval": "370"
    },
    "all_leads": {
        "Lead III": {
            "QRS_uV": 312,
            "ST_uV": 89,
            "T_wave_uV": 0,
            "P_wave_uV": 38
        },
        "Lead V6": {
            "QRS_uV": 567,
            "ST_uV": 193,
            "T_wave_uV": 0,
            "P_wave_uV": 77
        },
        "Lead II": {
            "QRS_uV": 893,
            "ST_uV": 284,
            "T_wave_uV": 0,
            "P_wave_uV": 117
        },
        "Lead V5": {
            "QRS_uV": 921,
            "ST_uV": 231,
            "T_wave_uV": 0,
            "P_wave_uV": 92
        },
        "Lead V4": {
            "QRS_uV": 966,
            "ST_uV": 310,
            "T_wave_uV": 0,
            "P_wave_uV": 104
        },
        "Lead V3": {
            "QRS_uV": 797,
            "ST_uV": 245,
            "T_wave_uV": 0,
            "P_wave_uV": 69
        },
        "Lead AvL": {
            "QRS_uV": 163,
            "ST_uV": 52,
            "T_wave_uV": 0,
            "P_wave_uV": 20
        },
        "Lead V2": {
            "QRS_uV": 364,
            "ST_uV": 127,
            "T_wave_uV": 128,
            "P_wave_uV": 62
        },
        "Lead V1": {
            "QRS_uV": 159,
            "ST_uV": 77,
            "T_wave_uV": 78,
            "P_wave_uV": 54
        },
        "Lead AvF": {
            "QRS_uV": 600,
            "ST_uV": 187,
            "T_wave_uV": 0,
            "P_wave_uV": 78
        },
        "Lead I": {
            "QRS_uV": 590,
            "ST_uV": 192,
            "T_wave_uV": 0,
            "P_wave_uV": 78
        },
        "Lead AvR": {
            "QRS_uV": 742,
            "ST_uV": -239,
            "T_wave_uV": 0,
            "P_wave_uV": 0
        }
    },
    "universal_ecg_score_system": {
        "overall": "58",
        "stamina": "41",
        "myocardial": "73",
        "psycho_emotional": "53",
        "heart_rhythm_disturbances": "100"
    }
}